Easier Tidying of Data from Spreadsheets • locatr
…
annotated_df %>% migrate()
#> # A tibble: 156 x 7
#>      row   col .value N_header_label_… N_header_label_… W_header_label_…
#>    <int> <int> <chr>  <chr>            <chr>            <chr>           
#>  1     9     2 1377   United States    "Total"          2018            
#>  2     9     3 851    United States    "1 unit"         2018            
#>  3     9     4 40     United States    "2 to 4 units"   2018            
#>  4     9     5 486    United States    "5 units\r\n or… 2018            
#>  5     9     6 135    Northeast        "Total"          2018            
#>  6     9     7 51     Northeast        "1 unit"         2018            
#>  7     9     8 203    Midwest          "Total"          2018            
#>  8     9     9 119    Midwest          "1 unit"         2018            
#>  9     9    10 652    South            "Total"          2018            
#> 10     9    11 456    South            "1 unit"         2018            
#> # … with 146 more rows, and 1 more variable: W_header_label_02 <chr>
…
